{
  "communicationLanguage": {
    "RU": "Russian",
    "EN": "English",
    "LV": "Latvian"
  },
  "passportType": {
    "ID": "ID card",
    "PP": "Passport"
  },
  "activityAndIncome": {
    "PE": "Paid employee",
    "EN": "HouseOwner/HouseWife",
    "SE": "Self-employed",
    "RE": "Retried",
    "ST": "Student",
    "UE": "Unemployed"
  },
  "businessType": {
    "ED": "Education",
    "MM": "Manufacturing, mining, extraction of raw materials",
    "EG": "Electricity, gas, and heating, ventilation systems",
    "WS": "Water supply and wastewater treatment systems and recycling",
    "CI": "Construction industry",
    "RW": "Retail and wholesale trade",
    "VR": "Vehicle repair",
    "TS": "Transportation and storage of goods",
    "HC": "Hotels and catering",
    "TT": "Telecommunications, IT services",
    "SL": "Sale / lease of property",
    "FI": "Financial services and insurance services",
    "HS": "Health and social care",
    "AR": "Arts, recreation and entertainment",
    "AS": "Administrative Services",
    "PA": "Public administration and the army, social insurance",
    "ST": "Scientific and Technical Services",
    "OT": "Other"
  },
  "accountUsage": {
    "PERSONAL": "Personal usage",
    "BUSINESS": "Business usage"
  },
  "openingPurpose": {
    "SA": "Salary",
    "CR": "Income from customer referral",
    "SG": "Income from the sale of gold",
    "IC": "Income from business activities",
    "OT": "Other"
  },
  "monthlyTurnOver": {
    "10": "1 EUR - 5000 EUR",
    "11": "5001 EUR - 15000 EUR",
    "20": "15000 EUR - 100000 EUR",
    "30": "100000 EUR - 200000 EUR",
    "40": "more than 200000 EUR"
  },
  "firstTopUp": {
    "MY": "My personal account",
    "AA": "From account of another person",
    "CC": "With my CreditCard",
    "CA": "With CreditCard of another person",
    "WM": "Via WesternUnion by myself",
    "WA": "Via WesternUnion by another person"
  },
  "firstTopUpConnection": {
    "FA": "Family",
    "FR": "Friend",
    "EM": "Employer",
    "CU": "Customer",
    "GT": "Gold Trader"
  },
  "otherTopUp": {
    "MY": "My personal account",
    "AA": "From account of another person",
    "CC": "With my CreditCard",
    "CA": "With CreditCard of another person",
    "WM": "Via WesternUnion by myself",
    "WA": "Via WesternUnion by another person"
  },
  "otherTopUpConnection": {
    "FA": "Family",
    "FR": "Friend",
    "EM": "Employer",
    "CU": "Customer",
    "GT": "Gold Trader"
  },
  "deliveryInformation": {
    "BP": "By post",
    "BR": "By registered email",
    "BC": "By courier",
    "RB": "Receive in office"
  }
}
